{
  "$help": "https://aka.ms/terminal-documentation",
  "$schema": "https://aka.ms/terminal-profiles-schema",
  "actions": 
  [
      {
          "command": 
          {
              "action": "copy",
              "singleLine": false
          },
          "keys": "ctrl+c"
      },
      {
          "command": "paste",
          "keys": "ctrl+v"
      },
      {
          "command": "find",
          "keys": "ctrl+shift+f"
      },
      {
          "command": 
          {
              "action": "splitPane",
              "split": "auto",
              "splitMode": "duplicate"
          },
          "keys": "alt+shift+d"
      }
  ],
  "centerOnLaunch": true,
  "copyFormatting": "none",
  "copyOnSelect": false,
  "defaultProfile": "{0caa0dad-35be-5f56-a8ff-afceeeaa6101}",
  "launchMode": "maximized",
  "newTabMenu": 
  [
      {
          "type": "remainingProfiles"
      }
  ],
  "profiles": 
  {
      "defaults": {},
      "list": 
      [
          {
              "colorScheme": "Campbell Powershell",
              "commandline": "%SystemRoot%\\System32\\WindowsPowerShell\\v1.0\\powershell.exe",
              "experimental.retroTerminalEffect": false,
              "font": 
              {
                  "cellHeight": "1",
                  "size": 10.0
              },
              "guid": "{61c54bbd-c2c6-5271-96e7-009a87ff44bf}",
              "hidden": false,
              "name": "Windows PowerShell"
          },
          {
              "colorScheme": "One Half Dark",
              "commandline": "%SystemRoot%\\System32\\cmd.exe",
              "experimental.retroTerminalEffect": false,
              "font": 
              {
                  "cellHeight": "1",
                  "size": 10.0,
                  "weight": "semi-bold"
              },
              "guid": "{0caa0dad-35be-5f56-a8ff-afceeeaa6101}",
              "hidden": false,
              "name": "Command Prompt"
          },
          {
              "guid": "{b453ae62-4e3d-5e58-b989-0a998ec441b8}",
              "hidden": false,
              "name": "Azure Cloud Shell",
              "source": "Windows.Terminal.Azure"
          },
          {
              "colorScheme": "One Half Dark",
              "font": 
              {
                  "cellHeight": "1",
                  "face": "Consolas",
                  "size": 10.0,
                  "weight": "semi-bold"
              },
              "guid": "{2ece5bfe-50ed-5f3a-ab87-5cd4baafed2b}",
              "hidden": false,
              "name": "Git Bash",
              "opacity": 100,
              "source": "Git",
              "startingDirectory": "D:\\"
          },
          {
              "altGrAliasing": true,
              "antialiasingMode": "grayscale",
              "closeOnExit": "automatic",
              "colorScheme": "One Half Dark",
              "commandline": "%windir%\\System32\\cmd.exe \"/K\" C:\\Users\\debmalya\\anaconda3\\Scripts\\activate.bat",
              "cursorShape": "bar",
              "experimental.retroTerminalEffect": false,
              "font": 
              {
                  "cellHeight": "1",
                  "face": "Cascadia Mono",
                  "size": 10.0,
                  "weight": "semi-bold"
              },
              "guid": "{adc8b2b3-eacf-4ddc-a37f-04a442056d53}",
              "hidden": false,
              "historySize": 9001,
              "icon": "C:\\Users\\debmalya\\anaconda3\\pkgs\\_anaconda_depends-2024.06-py312_mkl_2\\info\\recipe\\parent\\icon.ico",
              "name": "Anaconda Prompt",
              "padding": "8, 8, 8, 8",
              "snapOnInput": true,
              "startingDirectory": "%USERPROFILE%",
              "useAcrylic": false
          },
          {
              "altGrAliasing": true,
              "antialiasingMode": "grayscale",
              "closeOnExit": "automatic",
              "colorScheme": "One Half Dark",
              "commandline": "C:\\Users\\debmalya\\anaconda3\\python.exe C:\\Users\\debmalya\\anaconda3\\cwp.py C:\\Users\\debmalya\\anaconda3 C:\\Users\\debmalya\\anaconda3\\python.exe C:\\Users\\debmalya\\anaconda3\\Scripts\\jupyter-notebook-script.py \"E:/\"",
              "cursorShape": "bar",
              "experimental.retroTerminalEffect": false,
              "font": 
              {
                  "cellHeight": "1",
                  "face": "Cascadia Mono",
                  "size": 10.0,
                  "weight": "semi-bold"
              },
              "guid": "{f95ef191-e76a-45f9-9914-15c7d581af73}",
              "hidden": false,
              "historySize": 9001,
              "icon": "C:\\Users\\debmalya\\anaconda3\\Menu\\jupyter.ico",
              "name": "Jupyter Notebook",
              "padding": "8, 8, 8, 8",
              "snapOnInput": true,
              "startingDirectory": "E:\\",
              "useAcrylic": false
          },
          {
              "font": 
              {
                  "cellHeight": "1",
                  "face": "Courier New",
                  "size": 10.0,
                  "weight": "semi-bold"
              },
              "guid": "{acbafd15-cbbb-5bb3-8a61-bed446ff4b83}",
              "hidden": false,
              "name": "Ubuntu 24.04 LTS",
              "source": "CanonicalGroupLimited.Ubuntu24.04LTS_79rhkp1fndgsc"
          },
          {
              "guid": "{963ff2f7-6aed-5ce3-9d91-90d99571f53a}",
              "hidden": true,
              "name": "Ubuntu-24.04",
              "source": "Windows.Terminal.Wsl"
          }
      ]
  },
  "schemes": 
  [
      {
          "background": "#0C0C0C",
          "black": "#0C0C0C",
          "blue": "#0037DA",
          "brightBlack": "#767676",
          "brightBlue": "#3B78FF",
          "brightCyan": "#61D6D6",
          "brightGreen": "#16C60C",
          "brightPurple": "#B4009E",
          "brightRed": "#E74856",
          "brightWhite": "#F2F2F2",
          "brightYellow": "#F9F1A5",
          "cursorColor": "#FFFFFF",
          "cyan": "#3A96DD",
          "foreground": "#CCCCCC",
          "green": "#13A10E",
          "name": "Campbell",
          "purple": "#881798",
          "red": "#C50F1F",
          "selectionBackground": "#FFFFFF",
          "white": "#CCCCCC",
          "yellow": "#C19C00"
      },
      {
          "background": "#012456",
          "black": "#0C0C0C",
          "blue": "#0037DA",
          "brightBlack": "#767676",
          "brightBlue": "#3B78FF",
          "brightCyan": "#61D6D6",
          "brightGreen": "#16C60C",
          "brightPurple": "#B4009E",
          "brightRed": "#E74856",
          "brightWhite": "#F2F2F2",
          "brightYellow": "#F9F1A5",
          "cursorColor": "#FFFFFF",
          "cyan": "#3A96DD",
          "foreground": "#CCCCCC",
          "green": "#13A10E",
          "name": "Campbell Powershell",
          "purple": "#881798",
          "red": "#C50F1F",
          "selectionBackground": "#FFFFFF",
          "white": "#CCCCCC",
          "yellow": "#C19C00"
      },
      {
          "background": "#282C34",
          "black": "#282C34",
          "blue": "#61AFEF",
          "brightBlack": "#5A6374",
          "brightBlue": "#61AFEF",
          "brightCyan": "#56B6C2",
          "brightGreen": "#98C379",
          "brightPurple": "#C678DD",
          "brightRed": "#E06C75",
          "brightWhite": "#DCDFE4",
          "brightYellow": "#E5C07B",
          "cursorColor": "#FFFFFF",
          "cyan": "#56B6C2",
          "foreground": "#DCDFE4",
          "green": "#98C379",
          "name": "One Half Dark",
          "purple": "#C678DD",
          "red": "#E06C75",
          "selectionBackground": "#FFFFFF",
          "white": "#DCDFE4",
          "yellow": "#E5C07B"
      },
      {
          "background": "#FAFAFA",
          "black": "#383A42",
          "blue": "#0184BC",
          "brightBlack": "#4F525D",
          "brightBlue": "#61AFEF",
          "brightCyan": "#56B5C1",
          "brightGreen": "#98C379",
          "brightPurple": "#C577DD",
          "brightRed": "#DF6C75",
          "brightWhite": "#FFFFFF",
          "brightYellow": "#E4C07A",
          "cursorColor": "#4F525D",
          "cyan": "#0997B3",
          "foreground": "#383A42",
          "green": "#50A14F",
          "name": "One Half Light",
          "purple": "#A626A4",
          "red": "#E45649",
          "selectionBackground": "#4F525D",
          "white": "#FAFAFA",
          "yellow": "#C18301"
      },
      {
          "background": "#002B36",
          "black": "#002B36",
          "blue": "#268BD2",
          "brightBlack": "#073642",
          "brightBlue": "#839496",
          "brightCyan": "#93A1A1",
          "brightGreen": "#586E75",
          "brightPurple": "#6C71C4",
          "brightRed": "#CB4B16",
          "brightWhite": "#FDF6E3",
          "brightYellow": "#657B83",
          "cursorColor": "#FFFFFF",
          "cyan": "#2AA198",
          "foreground": "#839496",
          "green": "#859900",
          "name": "Solarized Dark",
          "purple": "#D33682",
          "red": "#DC322F",
          "selectionBackground": "#FFFFFF",
          "white": "#EEE8D5",
          "yellow": "#B58900"
      },
      {
          "background": "#FDF6E3",
          "black": "#002B36",
          "blue": "#268BD2",
          "brightBlack": "#073642",
          "brightBlue": "#839496",
          "brightCyan": "#93A1A1",
          "brightGreen": "#586E75",
          "brightPurple": "#6C71C4",
          "brightRed": "#CB4B16",
          "brightWhite": "#FDF6E3",
          "brightYellow": "#657B83",
          "cursorColor": "#002B36",
          "cyan": "#2AA198",
          "foreground": "#657B83",
          "green": "#859900",
          "name": "Solarized Light",
          "purple": "#D33682",
          "red": "#DC322F",
          "selectionBackground": "#073642",
          "white": "#EEE8D5",
          "yellow": "#B58900"
      },
      {
          "background": "#000000",
          "black": "#000000",
          "blue": "#3465A4",
          "brightBlack": "#555753",
          "brightBlue": "#729FCF",
          "brightCyan": "#34E2E2",
          "brightGreen": "#8AE234",
          "brightPurple": "#AD7FA8",
          "brightRed": "#EF2929",
          "brightWhite": "#EEEEEC",
          "brightYellow": "#FCE94F",
          "cursorColor": "#FFFFFF",
          "cyan": "#06989A",
          "foreground": "#D3D7CF",
          "green": "#4E9A06",
          "name": "Tango Dark",
          "purple": "#75507B",
          "red": "#CC0000",
          "selectionBackground": "#FFFFFF",
          "white": "#D3D7CF",
          "yellow": "#C4A000"
      },
      {
          "background": "#FFFFFF",
          "black": "#000000",
          "blue": "#3465A4",
          "brightBlack": "#555753",
          "brightBlue": "#729FCF",
          "brightCyan": "#34E2E2",
          "brightGreen": "#8AE234",
          "brightPurple": "#AD7FA8",
          "brightRed": "#EF2929",
          "brightWhite": "#EEEEEC",
          "brightYellow": "#FCE94F",
          "cursorColor": "#000000",
          "cyan": "#06989A",
          "foreground": "#555753",
          "green": "#4E9A06",
          "name": "Tango Light",
          "purple": "#75507B",
          "red": "#CC0000",
          "selectionBackground": "#555753",
          "white": "#D3D7CF",
          "yellow": "#C4A000"
      },
      {
          "background": "#300A24",
          "black": "#171421",
          "blue": "#0037DA",
          "brightBlack": "#767676",
          "brightBlue": "#08458F",
          "brightCyan": "#2C9FB3",
          "brightGreen": "#26A269",
          "brightPurple": "#A347BA",
          "brightRed": "#C01C28",
          "brightWhite": "#F2F2F2",
          "brightYellow": "#A2734C",
          "cursorColor": "#FFFFFF",
          "cyan": "#3A96DD",
          "foreground": "#FFFFFF",
          "green": "#26A269",
          "name": "Ubuntu-24.04-ColorScheme",
          "purple": "#881798",
          "red": "#C21A23",
          "selectionBackground": "#FFFFFF",
          "white": "#CCCCCC",
          "yellow": "#A2734C"
      },
      {
          "background": "#000000",
          "black": "#000000",
          "blue": "#000080",
          "brightBlack": "#808080",
          "brightBlue": "#0000FF",
          "brightCyan": "#00FFFF",
          "brightGreen": "#00FF00",
          "brightPurple": "#FF00FF",
          "brightRed": "#FF0000",
          "brightWhite": "#FFFFFF",
          "brightYellow": "#FFFF00",
          "cursorColor": "#FFFFFF",
          "cyan": "#008080",
          "foreground": "#C0C0C0",
          "green": "#008000",
          "name": "Vintage",
          "purple": "#800080",
          "red": "#800000",
          "selectionBackground": "#FFFFFF",
          "white": "#C0C0C0",
          "yellow": "#808000"
      }
  ],
  "themes": []
}