{
  "Start a Paragraph with Defined Alignment for Markdown Files": {
    "prefix": "p-markdown",
    "body": [
      "<p align = \"${1:justify}\">${2}</p>"
    ],
    "description": "Start a Paragraph with Defined Alignment for Markdown Files"
  }
}
