{
  // ! Firstly, JSON does not support the use of comments, and neither it will ever be!
  // * However, this file is created with comments as this file CANNOT BE DIRECTLY REPLACED with the `settings.json` of Windows Terminal
  "defaultProfile": "{0caa0dad-35be-5f56-a8ff-afceeeaa6101}",
  "launchMode": "maximized", // add this new key entry
  // INFORMATION : This file provides a list of `profile` setings and customizations that I have pre-configured
  // for optimal usage, and best view appearances. Replace the contents of `profiles/list` with the parameters mentioned here
  "profiles": {
    "defaults": {},
    "list": [
      // Windows Power Shell Configuration
      {
        "commandline": "%SystemRoot%\\System32\\WindowsPowerShell\\v1.0\\powershell.exe",
        "guid": "{61c54bbd-c2c6-5271-96e7-009a87ff44bf}",
        "colorScheme": "Campbell Powershell",
        "font": {
          "size": 10,
          "weight": "semi-bold"
        },
        "hidden": false,
        "name": "Windows PowerShell",
        "startingDirectory": "E:\\"
      },
      // Windows Command Prompt Configurations
      // I prefer to use the `cmd` by default, as some basic features requires elevated access by `ps`
      // To set `cmd` as default, set the `default-profile` with the given `guid` as done above
      {
        "commandline": "%SystemRoot%\\System32\\cmd.exe",
        "guid": "{0caa0dad-35be-5f56-a8ff-afceeeaa6101}",
        "font": {
          "size": 10
        },
        "hidden": false,
        "name": "Command Prompt",
        "startingDirectory": "E:\\"
      },
      // WSL: Ubuntu Setup
      {
        "source": "Windows.Terminal.Wsl",
        "guid": "{2c4de342-38b7-51cf-b940-2309a097f518}",
        "colorScheme": "One Half Dark",
        "experimental.retroTerminalEffect": false,
        "font": {
          "size": 9,
          "weight": "bold"
        },
        "hidden": false,
        "name": "Ubuntu"
      },
      // Anaconda Prompt Configuration & Settings
      // Configure this only after installation of anaconda distributions
      {
        "commandline": "%windir%\\System32\\cmd.exe \"/K\" C:\\Users\\debmalya\\anaconda3\\Scripts\\activate.bat C:\\Users\\debmalya\\anaconda3",
        "guid": "{d3635396-e55f-4fb6-b2a1-4e19a8e7f0ea}",
        "altGrAliasing": true,
        "antialiasingMode": "grayscale",
        "closeOnExit": "automatic",
        "colorScheme": "Solarized Dark",
        "cursorShape": "bar",
        "font": {
          "face": "Cascadia Mono",
          "size": 10,
          "weight": "semi-bold"
        },
        "hidden": false,
        "historySize": 9001,
        "icon": "C:\\Users\\debmalya\\anaconda3\\conda.png",
        "name": "Anaconda Prompt",
        "padding": "8, 8, 8, 8",
        "snapOnInput": true,
        "startingDirectory": "E:\\",
        "useAcrylic": false
      },
      // GIT for Windows Configuration & Setup
      {
        "source": "Git",
        "guid": "{2ece5bfe-50ed-5f3a-ab87-5cd4baafed2b}",
        "colorScheme": "One Half Dark",
        "font": {
          "size": 9,
          "weight": "bold"
        },
        "hidden": false,
        "name": "Git Bash"
      }
    ]
  }
}